<svg width="24" height="24" viewBox="0 0 24 24" fill="none" xmlns="http://www.w3.org/2000/svg">
<g clip-path="url(#clip0)">
<path d="M19.714 12C19.2406 12 18.8569 12.3838 18.8569 12.8572V21.4285C18.8569 21.9019 18.4731 22.2856 17.9997 22.2856H2.57139C2.098 22.2856 1.71425 21.9019 1.71425 21.4285V4.28585C1.71425 3.81245 2.098 3.4287 2.57139 3.4287H12.857C13.3304 3.4287 13.7141 3.04495 13.7141 2.57155C13.7141 2.09815 13.3304 1.71445 12.857 1.71445H2.57139C1.15125 1.71445 0 2.86571 0 4.28585V21.4285C0 22.8486 1.15125 23.9999 2.57139 23.9999H17.9998C19.4199 23.9999 20.5712 22.8486 20.5712 21.4285V12.8571C20.5712 12.3838 20.1874 12 19.714 12Z" fill="white"/>
<path d="M23.0392 0.961363C22.4237 0.345836 21.589 0.00010385 20.7186 0.000204296C19.8477 -0.00230683 19.0121 0.344028 18.3984 0.961916L7.10817 12.2511C7.0145 12.3455 6.94384 12.4602 6.9016 12.5863L5.18735 17.7291C5.03774 18.1782 5.28057 18.6636 5.72971 18.8131C5.81684 18.8421 5.9081 18.857 5.9999 18.8571C6.09191 18.8569 6.18337 18.8421 6.27075 18.8134L11.4135 17.0991C11.5399 17.0569 11.6546 16.9859 11.7487 16.8917L23.0388 5.60158C24.3203 4.3203 24.3204 2.24279 23.0392 0.961363Z" fill="white"/>
</g>
<defs>
<clipPath id="clip0">
<rect width="24" height="24" fill="white"/>
</clipPath>
</defs>
</svg>
