<svg width="26" height="26" viewBox="0 0 26 26" fill="none" xmlns="http://www.w3.org/2000/svg">
<circle cx="13" cy="13" r="13" fill="#B0B1A1"/>
<g clip-path="url(#clip0)">
<path d="M12.886 12.7072C13.9448 12.7072 14.8617 12.3275 15.6108 11.5782C16.36 10.8291 16.7397 9.91246 16.7397 8.8535C16.7397 7.79491 16.36 6.87817 15.6107 6.12878C14.8615 5.37976 13.9447 5 12.886 5C11.827 5 10.9104 5.37976 10.1613 6.1289C9.41211 6.87804 9.03223 7.79479 9.03223 8.8535C9.03223 9.91246 9.41211 10.8292 10.1614 11.5783C10.9106 12.3274 11.8274 12.7072 12.886 12.7072Z" fill="white"/>
<path d="M19.629 17.3032C19.6074 16.9914 19.5637 16.6514 19.4994 16.2922C19.4344 15.9304 19.3508 15.5884 19.2507 15.2757C19.1473 14.9526 19.0067 14.6335 18.8329 14.3278C18.6525 14.0104 18.4406 13.734 18.2028 13.5066C17.9541 13.2687 17.6497 13.0774 17.2976 12.9379C16.9468 12.7991 16.558 12.7288 16.1421 12.7288C15.9788 12.7288 15.8208 12.7958 15.5157 12.9944C15.328 13.1168 15.1084 13.2584 14.8633 13.415C14.6537 13.5486 14.3698 13.6737 14.019 13.787C13.6769 13.8977 13.3295 13.9539 12.9866 13.9539C12.6437 13.9539 12.2964 13.8977 11.9539 13.787C11.6035 13.6738 11.3196 13.5487 11.1102 13.4152C10.8674 13.26 10.6477 13.1184 10.4572 12.9943C10.1525 12.7957 9.99438 12.7286 9.83105 12.7286C9.41504 12.7286 9.02637 12.7991 8.67566 12.938C8.32385 13.0773 8.01929 13.2686 7.77039 13.5067C7.53271 13.7342 7.32068 14.0105 7.1405 14.3278C6.9668 14.6335 6.82617 14.9525 6.72266 15.2759C6.62268 15.5885 6.53906 15.9304 6.47412 16.2922C6.40979 16.6509 6.36609 16.9911 6.34448 17.3036C6.32324 17.6097 6.3125 17.9275 6.3125 18.2484C6.3125 19.0836 6.578 19.7597 7.10156 20.2584C7.61865 20.7505 8.30286 21.0001 9.13489 21.0001H16.839C17.671 21.0001 18.355 20.7506 18.8722 20.2584C19.3959 19.7601 19.6614 19.0838 19.6614 18.2483C19.6613 17.9259 19.6504 17.6079 19.629 17.3032Z" fill="white"/>
</g>
<defs>
<clipPath id="clip0">
<rect width="16" height="16" fill="white" transform="translate(5 5)"/>
</clipPath>
</defs>
</svg>
