<svg width="28" height="27" viewBox="0 0 28 27" fill="none" xmlns="http://www.w3.org/2000/svg">
<path d="M14 0L17.2304 9.9422H27.6843L19.2269 16.0868L22.4573 26.029L14 19.8844L5.54266 26.029L8.77308 16.0868L0.315734 9.9422H10.7696L14 0Z" fill="#FFE353"/>
</svg>
