<svg width="64" height="64" viewBox="0 0 64 64" fill="none" xmlns="http://www.w3.org/2000/svg">
<circle cx="32" cy="32" r="32" fill="white"/>
<path d="M17.5418 19.3015C15.6322 19.4247 14.4761 20.5041 14.4761 22.4238V33.9207C14.4761 43.2587 23.8562 50.5972 31.9706 50.5393C41.0947 50.4741 49.5237 42.8457 49.5237 33.9207V22.4238C49.5237 20.4968 48.2945 19.4102 46.3702 19.3015H17.5418ZM24.9318 28.654L31.9706 35.2754L39.0167 28.654C42.1702 27.3428 43.5458 30.907 42.2507 31.9502L33.0755 40.6217C32.7755 40.9043 31.1731 40.9043 30.8732 40.6217L21.6978 31.9502C20.4612 30.7983 22.0709 27.1761 24.9318 28.654Z" fill="#EF4056"/>
</svg>
