<svg width="64" height="64" viewBox="0 0 64 64" fill="none" xmlns="http://www.w3.org/2000/svg">
<mask id="mask0" mask-type="alpha" maskUnits="userSpaceOnUse" x="0" y="0" width="64" height="64">
<circle cx="32" cy="32" r="32" fill="white"/>
</mask>
<g mask="url(#mask0)">
<path d="M31.8731 66.0318C50.7384 66.0318 66.0318 50.7384 66.0318 31.8731C66.0318 13.0077 50.7384 -2.28564 31.8731 -2.28564C13.0077 -2.28564 -2.28564 13.0077 -2.28564 31.8731C-2.28564 50.7384 13.0077 66.0318 31.8731 66.0318Z" fill="#3C5A9A"/>
<path d="M42.9803 8.1991H35.4133C30.9228 8.1991 25.9281 10.0877 25.9281 16.5969C25.95 18.865 25.9281 21.0371 25.9281 23.4817H20.7332V31.7483H26.0888V55.5466H35.9301V31.5913H42.4257L43.0135 23.4585H35.7606C35.7606 23.4585 35.7768 19.8407 35.7606 18.79C35.7606 16.2178 38.4371 16.3651 38.5981 16.3651C39.8718 16.3651 42.3483 16.3688 42.984 16.3651V8.1991H42.9803Z" fill="white"/>
</g>
</svg>
