<svg width="64" height="64" viewBox="0 0 64 64" fill="none" xmlns="http://www.w3.org/2000/svg">
<mask id="mask0" mask-type="alpha" maskUnits="userSpaceOnUse" x="0" y="0" width="64" height="64">
<circle cx="32" cy="32" r="32" fill="white"/>
</mask>
<g mask="url(#mask0)">
<path d="M14.7455 -0.253139H49.5096C51.4471 -0.257374 53.3663 0.121131 55.1571 0.860611C56.9479 1.60009 58.575 2.68598 59.945 4.05597C61.315 5.42597 62.4009 7.05308 63.1404 8.84388C63.8798 10.6347 64.2583 12.5539 64.2541 14.4914V49.2554C64.2583 51.1929 63.8798 53.1122 63.1404 54.903C62.4009 56.6937 61.315 58.3209 59.945 59.6909C58.575 61.0609 56.9479 62.1467 55.1571 62.8862C53.3663 63.6257 51.4471 64.0042 49.5096 64H14.7455C12.808 64.0042 10.8888 63.6257 9.09802 62.8862C7.30723 62.1467 5.68012 61.0609 4.31013 59.6909C2.94013 58.3209 1.85422 56.6937 1.11474 54.903C0.375263 53.1122 -0.0032236 51.1929 0.00101172 49.2554V14.4914C-0.0032236 12.5539 0.375263 10.6347 1.11474 8.84388C1.85422 7.05308 2.94013 5.42597 4.31013 4.05597C5.68012 2.68598 7.30723 1.60009 9.09802 0.860611C10.8888 0.121131 12.808 -0.257374 14.7455 -0.253139Z" fill="url(#paint0_linear)"/>
<path d="M14.0789 18.0186C13.7405 18.0186 13.4213 18.0771 13.1194 18.197L19.1655 24.4217L25.2788 30.7577L25.3901 30.8919L25.5686 31.0703L25.7471 31.2488L26.104 31.6279L31.347 37.0044C31.4341 37.0587 31.6876 37.2929 31.8853 37.3921C32.1402 37.5192 32.4158 37.637 32.6999 37.6469C33.0069 37.6577 33.3203 37.5698 33.5966 37.4356C33.8036 37.335 33.8957 37.1908 34.1356 37.0051L40.2039 30.7363L46.3393 24.4224L52.2512 18.332C51.8676 18.1244 51.438 18.0168 51.0018 18.0193H14.0789V18.0186ZM12.227 18.7767C11.5823 19.3879 11.1782 20.3059 11.1782 21.3425V41.7784C11.1782 42.6172 11.4474 43.3797 11.8921 43.9644L12.7396 43.1612L19.0534 37.0258L24.6534 31.6044L24.542 31.4709L18.4066 25.157L12.2712 18.821L12.227 18.7767ZM53.0544 18.9781L47.0753 25.1577L40.9621 31.4716L40.8507 31.5829L46.6734 37.2272L52.9872 43.3625L53.3663 43.7195C53.7062 43.1741 53.9018 42.5023 53.9018 41.7784V21.3425C53.9018 20.4187 53.5819 19.5806 53.0544 18.9781ZM25.3673 32.3411L19.7902 37.7626L13.4542 43.898L12.651 44.679C13.0744 44.9518 13.5563 45.1252 14.0789 45.1252H51.0018C51.6301 45.1252 52.1998 44.8839 52.6753 44.5006L52.274 44.0993L45.938 37.9639L40.1153 32.3418L34.8724 37.7405C34.5889 37.9289 34.399 38.1374 34.122 38.2652C33.6758 38.4715 33.1875 38.6457 32.6963 38.6386C32.2037 38.6307 31.7204 38.438 31.2785 38.2209C31.0565 38.1117 30.938 38.0032 30.6781 37.7854L25.3673 32.3411Z" fill="white"/>
</g>
<defs>
<linearGradient id="paint0_linear" x1="32.0958" y1="63.7401" x2="32.5127" y2="-357.718" gradientUnits="userSpaceOnUse">
<stop stop-color="#70EFFF"/>
<stop offset="1" stop-color="#5770FF"/>
</linearGradient>
</defs>
</svg>
