<svg width="64" height="64" viewBox="0 0 64 64" fill="none" xmlns="http://www.w3.org/2000/svg">
<circle cx="32" cy="32" r="32" fill="white"/>
<path d="M32 54.0952C44.2029 54.0952 54.0953 44.146 54.0953 31.873C54.0953 19.6 44.2029 9.65076 32 9.65076C19.7972 9.65076 9.90479 19.6 9.90479 31.873C9.90479 44.146 19.7972 54.0952 32 54.0952Z" fill="#FF4500"/>
<path d="M46.7295 31.8148C46.7339 32.1176 46.6963 32.4198 46.6167 32.712C46.5371 33.0043 46.4166 33.2844 46.2584 33.5429C46.1008 33.8015 45.9073 34.0368 45.684 34.2418C45.4606 34.4468 45.2096 34.6191 44.9381 34.7539C44.9442 34.8346 44.9491 34.9158 44.9519 34.997C44.9586 35.159 44.9586 35.3212 44.9519 35.4832C44.9491 35.5644 44.9442 35.6456 44.9381 35.7263C44.9381 40.6764 39.1658 44.6984 32.0443 44.6984C24.9229 44.6984 19.1506 40.6764 19.1506 35.7263C19.1445 35.6456 19.1395 35.5644 19.1368 35.4832C19.1301 35.3212 19.1301 35.159 19.1368 34.997C19.1395 34.9158 19.1445 34.8346 19.1506 34.7539C18.7253 34.5586 18.3475 34.2732 18.0435 33.9176C17.7394 33.562 17.5163 33.1446 17.3896 32.6943C17.2631 32.2439 17.2362 31.7713 17.3106 31.3094C17.3851 30.8475 17.5592 30.4073 17.8209 30.0193C18.0823 29.6314 18.4251 29.3049 18.8254 29.0626C19.2257 28.8203 19.674 28.6679 20.1392 28.616C20.6044 28.5639 21.0754 28.6135 21.5196 28.7614C21.9637 28.9092 22.3703 29.1518 22.7113 29.4723C23.3443 29.0436 24.0075 28.6613 24.6957 28.3282C25.3841 27.9956 26.0956 27.7127 26.8249 27.4829C27.5542 27.2531 28.2995 27.0768 29.0542 26.9547C29.809 26.8326 30.572 26.7658 31.3366 26.7542L32.9732 19.0859C32.9915 18.997 33.0274 18.913 33.0788 18.8378C33.1297 18.7633 33.1955 18.6992 33.2712 18.65C33.3475 18.6008 33.4327 18.5671 33.5223 18.5506C33.6113 18.5345 33.7031 18.5362 33.7915 18.5555L39.21 19.6384C39.7568 18.6997 40.9046 18.2975 41.9181 18.6887C42.9316 19.0798 43.511 20.1489 43.2843 21.2107C43.0582 22.2726 42.0928 23.0129 41.008 22.9571C39.9227 22.9013 39.0386 22.0659 38.9225 20.9864L34.1896 19.992L32.7521 26.8868C33.5073 26.9028 34.2609 26.9735 35.0063 27.0978C36.4988 27.3464 37.9476 27.809 39.3079 28.4713C39.9872 28.8016 40.6419 29.1805 41.2668 29.6049C41.7161 29.1739 42.2807 28.882 42.8923 28.7646C43.504 28.6468 44.1367 28.7084 44.7142 28.942C45.2916 29.1754 45.7892 29.5709 46.1467 30.0806C46.5044 30.5904 46.7068 31.1927 46.7295 31.8148ZM24.7814 34.8705C24.8931 35.1385 25.0556 35.3821 25.2613 35.5871C25.4664 35.7926 25.7103 35.955 25.9784 36.0666C26.2468 36.1775 26.5345 36.2346 26.8249 36.2346C27.7195 36.2346 28.5257 35.6959 28.8685 34.8705C29.2107 34.0446 29.0211 33.0943 28.3885 32.4623C27.756 31.8303 26.805 31.6408 25.9784 31.9828C25.1524 32.3253 24.6133 33.1308 24.6133 34.0247C24.6133 34.3147 24.6703 34.602 24.7814 34.8705ZM37.4484 40.1753C37.5618 40.0648 37.6265 39.914 37.6287 39.756C37.6309 39.5974 37.5695 39.445 37.4589 39.3317C37.3484 39.2185 37.1974 39.1538 37.0393 39.1516C36.8806 39.1494 36.728 39.2107 36.6003 39.3063C36.2677 39.5446 35.9156 39.7544 35.5476 39.9334C35.1795 40.1124 34.797 40.26 34.4041 40.3748C34.0116 40.4891 33.6096 40.5703 33.2032 40.6173C32.7963 40.6643 32.3866 40.6764 31.978 40.6543C31.57 40.6726 31.1608 40.656 30.7555 40.6052C30.3502 40.5548 29.9498 40.4698 29.559 40.351C29.1676 40.2328 28.7877 40.0814 28.4223 39.8991C28.0568 39.7168 27.7074 39.5035 27.3778 39.2621C27.2634 39.1682 27.118 39.1201 26.9698 39.1273C26.8216 39.1345 26.6817 39.1969 26.5767 39.3013C26.4722 39.4063 26.4097 39.5461 26.4025 39.6941C26.3953 39.8422 26.4434 39.9875 26.5374 40.1019C26.9261 40.3947 27.3391 40.6532 27.772 40.8753C28.205 41.0974 28.6567 41.2814 29.1211 41.4261C29.5856 41.5709 30.0616 41.6753 30.5443 41.7388C31.027 41.8018 31.5141 41.8233 32.0001 41.8035C32.4861 41.8233 32.9732 41.8018 33.4559 41.7388C34.4227 41.6118 35.3604 41.3197 36.2282 40.8753C36.6611 40.6532 37.0741 40.3947 37.4628 40.1019L37.4484 40.1753ZM37.0426 36.4114C37.3423 36.4147 37.6397 36.3567 37.9167 36.2417C38.1938 36.1263 38.4442 35.9561 38.6532 35.7412C38.8622 35.5263 39.0248 35.2711 39.132 34.991C39.2394 34.7112 39.2885 34.4125 39.2763 34.1131C39.2763 33.2192 38.7373 32.4137 37.9112 32.0712C37.0846 31.7292 36.1336 31.9187 35.5011 32.5507C34.8686 33.1827 34.6789 34.133 35.0212 34.9589C35.364 35.7843 36.1701 36.323 37.0647 36.323L37.0426 36.4114Z" fill="white"/>
</svg>
