<svg width="161" height="167" viewBox="0 0 161 167" fill="none" xmlns="http://www.w3.org/2000/svg">
<path d="M148.469 144.47H12.1089V148.43H148.469V144.47Z" fill="black"/>
<path d="M148.459 142.72H12.1089V129.79H148.459V142.72Z" fill="black"/>
<path d="M37.4193 128.04H11.8793L7.16933 114.58L4.71933 107.58C4.71529 107.115 4.85132 106.659 5.10973 106.272C5.36814 105.885 5.73699 105.584 6.16835 105.41C6.59971 105.235 7.07364 105.194 7.52857 105.292C7.98349 105.39 8.39838 105.623 8.71933 105.96L12.4093 108.79L37.4193 128.04Z" fill="black"/>
<path d="M65.219 128.04H39.709L40.459 115.16L40.559 113.51L40.979 106.22C41.1685 105.827 41.4652 105.495 41.8349 105.263C42.2046 105.03 42.6324 104.907 43.069 104.907C43.5056 104.907 43.9333 105.03 44.3031 105.263C44.6728 105.495 44.9695 105.827 45.159 106.22L46.289 107.46L48.049 109.38L65.219 128.04Z" fill="black"/>
<path d="M93.4093 89.32C90.4314 92.2776 88.34 96.0092 87.3716 100.093C86.4032 104.177 86.5964 108.45 87.9293 112.43L93.1193 128.04H67.4193L72.6193 112.43C73.9499 108.45 74.1419 104.177 73.1736 100.094C72.2053 96.0105 70.1153 92.2789 67.1393 89.32L67.0693 89.23C70.6085 87.7826 73.7941 85.5895 76.4093 82.8C77.3872 81.7659 78.2552 80.6332 78.9993 79.42C79.1308 79.187 79.3219 78.9931 79.553 78.8582C79.784 78.7233 80.0468 78.6522 80.3143 78.6522C80.5819 78.6522 80.8446 78.7233 81.0757 78.8582C81.3068 78.9931 81.4978 79.187 81.6293 79.42C82.3533 80.6426 83.2083 81.7827 84.1793 82.82C86.8028 85.5949 89.9866 87.78 93.5193 89.23C93.4907 89.2687 93.4529 89.2996 93.4093 89.32Z" fill="black"/>
<path d="M40.4189 98.87C38.4773 100.999 36.0862 102.67 33.4189 103.76C33.4189 103.76 40.4189 110.53 40.4189 115.16H45.8289C45.8289 110.53 52.8289 103.76 52.8289 103.76C50.164 102.665 47.7737 100.996 45.8289 98.87C45.4947 98.4794 45.0799 98.1658 44.6129 97.9508C44.146 97.7358 43.638 97.6244 43.1239 97.6244C42.6099 97.6244 42.1019 97.7358 41.6349 97.9508C41.168 98.1658 40.7532 98.4794 40.4189 98.87Z" fill="black"/>
<path d="M155.549 107.63L153.159 114.41L148.379 128.04H122.849L148.449 108.4L151.559 106.01C151.881 105.677 152.295 105.447 152.748 105.351C153.201 105.255 153.673 105.297 154.102 105.471C154.531 105.645 154.898 105.944 155.156 106.329C155.414 106.714 155.551 107.167 155.549 107.63Z" fill="black"/>
<path d="M120.559 128.04H95.0591L112.199 109.39L114.449 106.93L115.119 106.22C115.307 105.826 115.602 105.494 115.971 105.261C116.34 105.028 116.768 104.904 117.204 104.904C117.64 104.904 118.068 105.028 118.437 105.261C118.806 105.494 119.101 105.826 119.289 106.22L119.709 113.41L119.809 115.16L120.559 128.04Z" fill="black"/>
<path d="M119.839 98.87C121.784 100.996 124.174 102.665 126.839 103.76C126.839 103.76 119.839 110.53 119.839 115.16H114.419C114.419 110.53 107.469 103.76 107.469 103.76C110.134 102.665 112.525 100.996 114.469 98.87C114.802 98.4847 115.215 98.1756 115.678 97.9638C116.141 97.752 116.645 97.6423 117.154 97.6423C117.664 97.6423 118.167 97.752 118.63 97.9638C119.094 98.1756 119.506 98.4847 119.839 98.87Z" fill="black"/>
<path d="M153.539 114.7L147.389 110.04C148.029 109.18 162.979 88.71 140.389 67.52C123.819 52.02 101.499 64.58 89.4991 71.32C88.1391 72.09 86.9591 72.75 85.9091 73.32C84.1855 74.2274 82.267 74.7015 80.3191 74.7015C78.3713 74.7015 76.4527 74.2274 74.7291 73.32C73.7291 72.77 72.5091 72.11 71.1491 71.32C59.1491 64.58 36.8191 52.02 20.2591 67.52C10.6191 76.52 6.52911 86.44 8.09911 96.96C8.78734 101.642 10.5127 106.11 13.1491 110.04L6.99911 114.7C3.53582 109.734 1.27618 104.03 0.399113 98.04C-0.950887 89.04 0.479114 75.38 14.9291 61.86C35.6291 42.49 62.1391 57.4 74.9291 64.57C76.2491 65.3 77.3791 65.94 78.3291 66.44C78.9452 66.7666 79.6318 66.9373 80.3291 66.9373C81.0264 66.9373 81.7131 66.7666 82.3291 66.44C83.3291 65.94 84.4091 65.3 85.7191 64.57C98.4691 57.4 124.979 42.49 145.719 61.85C160.069 75.38 161.499 89.04 160.149 98.04C159.269 104.031 157.006 109.735 153.539 114.7Z" fill="black"/>
<path d="M40.2891 113.61C39.2891 110.54 38.0091 107.43 36.6991 104.14C30.0091 87.34 21.6991 66.43 45.7891 54.45C54.0291 50.36 61.6291 49.68 68.3891 52.45C79.3891 56.96 83.7491 69.04 83.9191 69.55L76.6291 72.04C76.6291 71.95 73.2191 62.68 65.4291 59.53C60.8191 57.68 55.3691 58.28 49.2291 61.33C32.6991 69.55 36.2291 81.9 43.8791 101.24C45.1691 104.48 46.4991 107.82 47.6091 111.07L40.2891 113.61Z" fill="black"/>
<path d="M120.259 113.61L112.939 111.11C114.049 107.86 115.379 104.52 116.669 101.28C124.369 81.94 127.849 69.59 111.319 61.37C105.169 58.37 99.7291 57.72 95.1191 59.57C87.3291 62.72 83.9991 72.04 83.9191 72.04L76.6191 69.49C76.7991 68.98 81.1191 56.9 92.1591 52.39C98.9191 49.64 106.519 50.32 114.759 54.39C138.859 66.39 130.539 87.28 123.849 104.08C122.539 107.43 121.299 110.54 120.259 113.61Z" fill="black"/>
<path d="M80.2692 104.34C79.2454 104.34 78.2636 103.933 77.5397 103.209C76.8159 102.486 76.4092 101.504 76.4092 100.48V56.77C76.4596 55.7789 76.8888 54.8451 77.6081 54.1615C78.3274 53.4779 79.2818 53.0967 80.2742 53.0967C81.2665 53.0967 82.2209 53.4779 82.9402 54.1615C83.6595 54.8451 84.0887 55.7789 84.1392 56.77V100.48C84.1392 100.988 84.039 101.491 83.8444 101.959C83.6498 102.428 83.3646 102.854 83.0051 103.213C82.6456 103.572 82.2189 103.856 81.7494 104.049C81.2799 104.242 80.7769 104.341 80.2692 104.34Z" fill="black"/>
<path d="M90.1191 18.6C89.1398 20.351 87.7113 21.8091 85.9808 22.8241C84.2502 23.8391 82.2803 24.3742 80.2741 24.3742C78.2678 24.3742 76.2979 23.8391 74.5674 22.8241C72.8369 21.8091 71.4083 20.351 70.4291 18.6L57.1991 24.91C56.9162 25.0455 56.6655 25.2398 56.4639 25.4801C56.2623 25.7203 56.1144 26.0009 56.0301 26.303C55.9459 26.6051 55.9271 26.9218 55.9753 27.2317C56.0234 27.5416 56.1372 27.8377 56.3091 28.1L64.3091 40.26H96.3091L104.309 28.1C104.481 27.8377 104.595 27.5416 104.643 27.2317C104.691 26.9218 104.672 26.6051 104.588 26.303C104.504 26.0009 104.356 25.7203 104.154 25.4801C103.953 25.2398 103.702 25.0455 103.419 24.91L90.1191 18.6Z" fill="black"/>
<path d="M80.269 26.12C83.1379 26.1244 85.9285 25.184 88.2096 23.4441C90.4906 21.7042 92.1353 19.2615 92.8896 16.4935C93.6438 13.7256 93.4657 10.7862 92.3826 8.1296C91.2995 5.47299 89.3718 3.24692 86.8973 1.79527C84.4227 0.343623 81.539 -0.252822 78.6917 0.0980715C75.8443 0.448965 73.1917 1.72767 71.1436 3.73666C69.0955 5.74565 67.766 8.37313 67.3603 11.2132C66.9546 14.0533 67.4953 16.9479 68.899 19.45C70.0276 21.4744 71.6768 23.1603 73.6759 24.333C75.675 25.5057 77.9513 26.1227 80.269 26.12Z" fill="black"/>
<path d="M96.7192 41.12H63.8292C62.8665 41.12 61.9432 41.5024 61.2624 42.1832C60.5817 42.864 60.1992 43.7873 60.1992 44.75C60.1992 45.7127 60.5817 46.636 61.2624 47.3168C61.9432 47.9976 62.8665 48.38 63.8292 48.38H96.7192C97.682 48.38 98.6053 47.9976 99.286 47.3168C99.9668 46.636 100.349 45.7127 100.349 44.75C100.349 43.7873 99.9668 42.864 99.286 42.1832C98.6053 41.5024 97.682 41.12 96.7192 41.12Z" fill="black"/>
<path d="M148.469 129.79H12.1089V142.73H148.469V129.79Z" fill="black"/>
<path d="M79.9889 18.46C83.6175 18.46 86.5589 15.5185 86.5589 11.89C86.5589 8.26149 83.6175 5.32 79.9889 5.32C76.3604 5.32 73.4189 8.26149 73.4189 11.89C73.4189 15.5185 76.3604 18.46 79.9889 18.46Z" fill="white"/>
<path d="M150.349 151.2H10.199C5.94643 151.2 2.49902 154.647 2.49902 158.9V158.91C2.49902 163.163 5.94643 166.61 10.199 166.61H150.349C154.602 166.61 158.049 163.163 158.049 158.91V158.9C158.049 154.647 154.602 151.2 150.349 151.2Z" fill="black"/>
</svg>
