<svg width="47" height="40" viewBox="0 0 47 40" fill="none" xmlns="http://www.w3.org/2000/svg">
<rect width="47" height="40" rx="8" fill="#B0B1A1"/>
<path d="M31.5625 9H28.2969C26.4014 9 24.8594 10.5421 24.8594 12.4375V15.7031C24.8594 17.5986 26.4014 19.1406 28.2969 19.1406H31.5625C33.4579 19.1406 35 17.5986 35 15.7031V12.4375C35 10.5421 33.4579 9 31.5625 9ZM33.2812 15.7031C33.2812 16.6508 32.5102 17.4219 31.5625 17.4219H28.2969C27.3492 17.4219 26.5781 16.6508 26.5781 15.7031V12.4375C26.5781 11.4898 27.3492 10.7188 28.2969 10.7188H31.5625C32.5102 10.7188 33.2812 11.4898 33.2812 12.4375V15.7031Z" fill="white"/>
<path d="M19.7031 9H16.4375C14.5421 9 13 10.5421 13 12.4375V15.7031C13 17.5986 14.5421 19.1406 16.4375 19.1406H19.7031C21.5986 19.1406 23.1406 17.5986 23.1406 15.7031V12.4375C23.1406 10.5421 21.5986 9 19.7031 9ZM21.4219 15.7031C21.4219 16.6508 20.6508 17.4219 19.7031 17.4219H16.4375C15.4898 17.4219 14.7188 16.6508 14.7188 15.7031V12.4375C14.7188 11.4898 15.4898 10.7188 16.4375 10.7188H19.7031C20.6508 10.7188 21.4219 11.4898 21.4219 12.4375V15.7031Z" fill="white"/>
<path d="M19.7031 20.8594H16.4375C14.5421 20.8594 13 22.4014 13 24.2969V27.5625C13 29.4579 14.5421 31 16.4375 31H19.7031C21.5986 31 23.1406 29.4579 23.1406 27.5625V24.2969C23.1406 22.4014 21.5986 20.8594 19.7031 20.8594ZM21.4219 27.5625C21.4219 28.5102 20.6508 29.2812 19.7031 29.2812H16.4375C15.4898 29.2812 14.7188 28.5102 14.7188 27.5625V24.2969C14.7188 23.3492 15.4898 22.5781 16.4375 22.5781H19.7031C20.6508 22.5781 21.4219 23.3492 21.4219 24.2969V27.5625Z" fill="white"/>
<path d="M34.1406 26.7031C33.666 26.7031 33.2812 27.0879 33.2812 27.5625C33.2812 28.5102 32.5102 29.2812 31.5625 29.2812H28.2969C27.3492 29.2812 26.5781 28.5102 26.5781 27.5625V24.2969C26.5781 23.3492 27.3492 22.5781 28.2969 22.5781H31.5625C32.2459 22.5781 32.8645 22.9828 33.1384 23.6092C33.3285 24.0441 33.8352 24.2424 34.2701 24.0523C34.705 23.8621 34.9033 23.3554 34.7132 22.9206C34.1656 21.6684 32.9289 20.8594 31.5625 20.8594H28.2969C26.4014 20.8594 24.8594 22.4014 24.8594 24.2969V27.5625C24.8594 29.4579 26.4014 31 28.2969 31H31.5625C33.4579 31 35 29.4579 35 27.5625C35 27.0879 34.6153 26.7031 34.1406 26.7031Z" fill="white"/>
</svg>
