<svg width="20" height="18" viewBox="0 0 20 18" fill="none" xmlns="http://www.w3.org/2000/svg">
<path d="M19.7881 5.99776L14.0738 0.283519C13.9324 0.142127 13.765 0.0714111 13.5716 0.0714111C13.3781 0.0714111 13.2106 0.142127 13.0694 0.283519C12.928 0.424989 12.8572 0.592416 12.8572 0.785838V3.64296H10.3572C5.05189 3.64296 1.79686 5.14225 0.59133 8.14077C0.197097 9.13766 0 10.3767 0 11.8573C0 13.0923 0.472493 14.7701 1.4174 16.8907C1.43968 16.9429 1.47862 17.032 1.53452 17.1585C1.59038 17.2849 1.64053 17.3965 1.68518 17.4933C1.72997 17.5899 1.77837 17.6717 1.8304 17.7386C1.91961 17.8652 2.02382 17.9286 2.14289 17.9286C2.2545 17.9286 2.34194 17.8914 2.40523 17.817C2.46837 17.7426 2.49999 17.6495 2.49999 17.5382C2.49999 17.471 2.49069 17.3726 2.47204 17.2423C2.45343 17.112 2.44409 17.0248 2.44409 16.9801C2.40684 16.4743 2.38823 16.0164 2.38823 15.6075C2.38823 14.856 2.45343 14.1826 2.58353 13.5874C2.71382 12.9921 2.89422 12.477 3.12494 12.0417C3.35561 11.6062 3.65314 11.2307 4.01782 10.9145C4.38234 10.5982 4.77478 10.3398 5.19516 10.1388C5.61562 9.93786 6.1104 9.77973 6.67961 9.66446C7.24877 9.54914 7.82165 9.46912 8.39836 9.42444C8.97507 9.37976 9.62797 9.35755 10.3572 9.35755H12.8572V12.2148C12.8572 12.4082 12.9278 12.5756 13.0691 12.717C13.2106 12.8582 13.3779 12.929 13.5713 12.929C13.7647 12.929 13.9322 12.8582 14.0738 12.717L19.788 7.00252C19.9294 6.86112 20 6.69378 20 6.50031C20 6.30689 19.9294 6.13943 19.7881 5.99776Z" fill="white"/>
</svg>
