<svg width="44" height="44" viewBox="0 0 44 44" fill="none" xmlns="http://www.w3.org/2000/svg">
<path d="M22.0601 44.1201C9.87663 44.1201 0 34.2435 0 22.0601C0 9.87663 9.87663 0 22.0601 0C34.2435 0 44.1201 9.87663 44.1201 22.0601C44.1201 34.2435 34.2435 44.1201 22.0601 44.1201Z" fill="#B0B1A1"/>
<path d="M16.2018 31.7077H28.0677C28.5877 31.7077 29.0865 31.9143 29.4542 32.282C29.822 32.6497 30.0286 33.1485 30.0286 33.6686V34.649C30.0286 34.909 29.9253 35.1584 29.7414 35.3423C29.5575 35.5262 29.3081 35.6295 29.0481 35.6295H15.2165C14.9564 35.6295 14.7071 35.5262 14.5232 35.3423C14.3393 35.1584 14.236 34.909 14.236 34.649V33.6686C14.236 33.4106 14.2869 33.1553 14.3858 32.917C14.4846 32.6788 14.6295 32.4624 14.8121 32.2803C14.9947 32.0981 15.2114 31.9538 15.4499 31.8555C15.6884 31.7573 15.9439 31.707 16.2018 31.7077Z" fill="#F3F3F3"/>
<path d="M21.0453 8.12299C21.1855 8.10245 21.3284 8.11251 21.4643 8.1525C21.6001 8.19248 21.7258 8.26144 21.8325 8.35461C21.9392 8.44779 22.0244 8.56298 22.0823 8.69225C22.1402 8.82152 22.1694 8.9618 22.1679 9.10344V10.0104H23.6386C23.7912 10.01 23.9418 10.0452 24.0784 10.1133C24.215 10.1814 24.3338 10.2804 24.4254 10.4025L28.1731 15.4028C28.4006 15.7064 28.5585 16.0562 28.6359 16.4275C28.7133 16.7988 28.7082 17.1826 28.621 17.5518C28.5338 17.9209 28.3666 18.2664 28.1313 18.5638C27.8959 18.8613 27.5981 19.1034 27.2589 19.2731C26.8984 19.4498 26.5022 19.5416 26.1007 19.5416C25.6993 19.5416 25.3031 19.4498 24.9426 19.2731L22.1679 17.8858L23.8837 19.6138C25.2142 20.9435 26.2677 22.5241 26.983 24.2639C27.6982 26.0037 28.0611 27.8681 28.0506 29.7492H16.1823C16.7923 28.5149 17.1134 27.1579 17.121 25.781C17.1287 24.4042 16.8227 23.0437 16.2264 21.8027L15.0352 19.3834C14.5046 18.3053 14.2303 17.1192 14.2336 15.9176C14.254 14.0198 14.9514 12.1917 16.2003 10.7626C17.4492 9.33352 19.1674 8.39743 21.0453 8.12299ZM22.1679 14.9248C22.3618 14.9248 22.5514 14.8673 22.7126 14.7596C22.8738 14.6519 22.9995 14.4988 23.0737 14.3196C23.1479 14.1404 23.1673 13.9433 23.1295 13.7531C23.0917 13.5629 22.9983 13.3882 22.8612 13.2511C22.7241 13.114 22.5494 13.0206 22.3592 12.9828C22.169 12.945 21.9719 12.9644 21.7927 13.0386C21.6135 13.1128 21.4604 13.2385 21.3527 13.3997C21.2449 13.5609 21.1875 13.7505 21.1875 13.9444C21.1875 14.2044 21.2908 14.4538 21.4746 14.6377C21.6585 14.8216 21.9079 14.9248 22.1679 14.9248Z" fill="#F3F3F3"/>
</svg>
