<svg width="414" height="628" viewBox="0 0 414 628" fill="none" xmlns="http://www.w3.org/2000/svg">
<path d="M0 50C0 22.3858 22.3858 0 50 0H364C391.614 0 414 22.3858 414 50V628H0V50Z" fill="#D1E6E7"/>
</svg>
