<svg width="84" height="80" viewBox="0 0 84 80" fill="none" xmlns="http://www.w3.org/2000/svg">
<path d="M41.7199 80C64.6821 80 83.2967 62.0914 83.2967 40C83.2967 17.9086 64.6821 0 41.7199 0C18.7577 0 0.143158 17.9086 0.143158 40C0.143158 62.0914 18.7577 80 41.7199 80Z" fill="#B0B1A1"/>
<path d="M41.0038 73.7778C38.9733 73.7778 37.0056 73.1005 35.4359 71.8613C33.8662 70.622 32.7916 68.8975 32.3953 66.9816C31.999 65.0656 32.3054 63.0767 33.2623 61.3537C34.2193 59.6307 35.7676 58.2802 37.6434 57.5323C39.5192 56.7844 41.6065 56.6853 43.5498 57.252C45.493 57.8186 47.172 59.0159 48.3005 60.6399C49.4291 62.2639 49.9375 64.2141 49.7392 66.1583C49.5408 68.1025 48.6479 69.9204 47.2127 71.3022C46.3994 72.0894 45.4318 72.7136 44.3661 73.1385C43.3003 73.5634 42.1575 73.7807 41.0038 73.7778V73.7778ZM41.0038 57.8667C39.2106 57.8666 37.4728 58.4648 36.0865 59.5591C34.7001 60.6535 33.7511 62.1765 33.401 63.8686C33.0509 65.5606 33.3215 67.3171 34.1665 68.8388C35.0116 70.3605 36.3789 71.5533 38.0355 72.2139C39.6921 72.8745 41.5355 72.9621 43.2517 72.4617C44.9679 71.9614 46.4508 70.9041 47.4475 69.4699C48.4443 68.0357 48.8934 66.3134 48.7183 64.5964C48.5433 62.8794 47.7548 61.2738 46.4874 60.0534C45.7689 59.3584 44.9143 58.8073 43.9731 58.432C43.0319 58.0567 42.0227 57.8645 41.0038 57.8667V57.8667Z" fill="white"/>
<path d="M40.4911 58.8578H41.5397V60.1911H40.5142L40.4911 58.8578Z" fill="white"/>
<path d="M44.4224 61.3378L45.3925 60.4044L46.1178 61.1022L45.1477 62.04L44.4224 61.3378Z" fill="white"/>
<path d="M46.3534 64.8311H47.7393V65.8222H46.3534V64.8311Z" fill="white"/>
<path d="M44.4178 69.3156L45.1477 68.6178L46.1178 69.5511L45.3925 70.2489L44.4178 69.3156Z" fill="white"/>
<path d="M40.4911 70.4756H41.5397V71.8089H40.5142L40.4911 70.4756Z" fill="white"/>
<path d="M35.8853 69.5511L36.8554 68.6133L37.5807 69.3156L36.6106 70.2489L35.8853 69.5511Z" fill="white"/>
<path d="M34.2823 64.8311H35.6682V65.8222H34.2823V64.8311Z" fill="white"/>
<path d="M35.8853 61.1022L36.6106 60.4044L37.5853 61.3378L36.8554 62.0355L35.8853 61.1022Z" fill="white"/>
<path d="M44.6349 65.8223H40.4772V61.8223H41.5397V64.8223H44.658L44.6349 65.8223Z" fill="white"/>
<path d="M41.0038 22.2222C38.9733 22.2222 37.0056 21.5449 35.4359 20.3057C33.8662 19.0664 32.7916 17.3419 32.3953 15.426C31.999 13.51 32.3054 11.5211 33.2623 9.79813C34.2193 8.07514 35.7676 6.72464 37.6434 5.97672C39.5192 5.22879 41.6065 5.12971 43.5498 5.69635C45.493 6.263 47.172 7.4603 48.3005 9.0843C49.4291 10.7083 49.9375 12.6585 49.7392 14.6027C49.5408 16.5469 48.6479 18.3648 47.2127 19.7466C46.3994 20.5338 45.4318 21.158 44.3661 21.5829C43.3003 22.0078 42.1575 22.2251 41.0038 22.2222V22.2222ZM41.0038 6.31109C39.2106 6.31104 37.4728 6.90916 36.0865 8.00354C34.7001 9.09793 33.7511 10.6209 33.401 12.313C33.0509 14.005 33.3215 15.7615 34.1665 17.2832C35.0116 18.8049 36.3789 19.9977 38.0355 20.6583C39.6921 21.3189 41.5355 21.4065 43.2517 20.9061C44.9679 20.4058 46.4508 19.3485 47.4475 17.9143C48.4443 16.4801 48.8934 14.7578 48.7183 13.0408C48.5433 11.3238 47.7548 9.71824 46.4874 8.49776C45.7689 7.80279 44.9143 7.25172 43.9731 6.87639C43.0319 6.50106 42.0227 6.30893 41.0038 6.31109V6.31109Z" fill="white"/>
<path d="M40.4911 7.30225H41.5397V8.63556H40.5142L40.4911 7.30225Z" fill="white"/>
<path d="M44.4224 9.78221L45.3925 8.84888L46.1178 9.54666L45.1477 10.4844L44.4224 9.78221Z" fill="white"/>
<path d="M46.3534 13.2756H47.7393V14.2667H46.3534V13.2756Z" fill="white"/>
<path d="M44.4178 17.76L45.1477 17.0623L46.1178 17.9956L45.3925 18.6934L44.4178 17.76Z" fill="white"/>
<path d="M40.4911 18.92H41.5397V20.2534H40.5142L40.4911 18.92Z" fill="white"/>
<path d="M35.8853 17.9956L36.8554 17.0578L37.5807 17.76L36.6106 18.6934L35.8853 17.9956Z" fill="white"/>
<path d="M34.2823 13.2756H35.6682V14.2667H34.2823V13.2756Z" fill="white"/>
<path d="M35.8853 9.54665L36.6106 8.84888L37.5853 9.78221L36.8554 10.48L35.8853 9.54665Z" fill="white"/>
<path d="M44.6349 14.2667H40.4772V10.2667H41.5397V13.2667H44.658L44.6349 14.2667Z" fill="white"/>
<path d="M66.6937 42.0623C68.8741 42.0623 70.6389 40 70.6389 37.4534C70.6389 34.9067 70.0568 32.8445 66.6937 32.8445C63.3306 32.8445 62.7485 34.9067 62.7485 37.4534C62.7485 40 64.5178 42.0623 66.6937 42.0623Z" fill="white"/>
<path d="M74.136 48.9111C74.062 44.4667 73.4568 43.2133 68.8557 42.4133C68.2623 42.9256 67.4932 43.2089 66.696 43.2089C65.8988 43.2089 65.1297 42.9256 64.5363 42.4133C59.9814 43.2044 59.3392 44.4489 59.2561 48.7689C59.2561 49.12 59.2561 49.1378 59.2561 49.0978V49.5422C59.2561 49.5422 60.3509 51.6667 66.7029 51.6667C73.0549 51.6667 74.1498 49.5422 74.1498 49.5422V49.1956C74.1405 49.2445 74.1406 49.1956 74.136 48.9111Z" fill="white"/>
<path d="M72.168 41.24C73.9373 41.24 75.3694 39.5644 75.3694 37.4978C75.3694 35.4311 74.9074 33.7556 72.168 33.7556C71.7648 33.7491 71.3624 33.7939 70.9715 33.8889C71.6043 35.0089 71.6875 36.3689 71.6875 37.4444C71.6965 38.6356 71.3554 39.805 70.7035 40.8178C71.1409 41.0878 71.6484 41.2341 72.168 41.24V41.24Z" fill="white"/>
<path d="M78.2105 46.8044C78.1504 43.2 77.6607 42.1778 73.9188 41.5244C73.6933 41.7481 73.4199 41.9221 73.1176 42.0341C72.8153 42.1461 72.4913 42.1936 72.168 42.1733H72.0294C72.8237 42.4951 73.5166 43.0115 74.0389 43.6711C74.9628 44.8622 75.1476 46.4622 75.1938 48.8134C77.7115 48.3378 78.2243 47.3378 78.2243 47.3378V47.0578C78.2243 47.0578 78.2151 47.0356 78.2105 46.8044Z" fill="white"/>
<path d="M61.2194 41.24C61.7381 41.2368 62.2455 41.0936 62.6838 40.8267C62.032 39.8139 61.6909 38.6445 61.6999 37.4533C61.6369 36.2299 61.8825 35.01 62.4159 33.8978C62.0249 33.8028 61.6226 33.758 61.2194 33.7645C58.4892 33.7645 58.018 35.44 58.018 37.5067C58.018 39.5733 59.4547 41.24 61.2194 41.24Z" fill="white"/>
<path d="M61.3719 42.1689H61.2194C60.8961 42.1892 60.5721 42.1417 60.2698 42.0297C59.9675 41.9177 59.6941 41.7438 59.4686 41.52C55.7267 42.1734 55.237 43.1956 55.1769 46.8C55.1822 46.8829 55.1822 46.966 55.1769 47.0489V47.3289C55.1769 47.3289 55.6943 48.3244 58.2074 48.8044C58.2536 46.4533 58.4615 44.8533 59.3623 43.6622C59.8846 43.0037 60.5776 42.4888 61.3719 42.1689V42.1689Z" fill="white"/>
<path d="M14.9537 42.0623C17.1342 42.0623 18.8989 40 18.8989 37.4534C18.8989 34.9067 18.3168 32.8445 14.9537 32.8445C11.5906 32.8445 11.0086 34.9067 11.0086 37.4534C11.0086 40 12.7778 42.0623 14.9537 42.0623Z" fill="white"/>
<path d="M22.396 48.9111C22.3221 44.4667 21.7169 43.2133 17.1157 42.4133C16.5224 42.9256 15.7532 43.2089 14.956 43.2089C14.1588 43.2089 13.3897 42.9256 12.7964 42.4133C8.24139 43.2044 7.59924 44.4489 7.51608 48.7689C7.51608 49.12 7.51608 49.1378 7.51608 49.0978V49.5422C7.51608 49.5422 8.61094 51.6667 14.9629 51.6667C21.3149 51.6667 22.4098 49.5422 22.4098 49.5422V49.1956C22.4006 49.2445 22.4006 49.1956 22.396 48.9111Z" fill="white"/>
<path d="M20.428 41.24C22.1973 41.24 23.6294 39.5644 23.6294 37.4978C23.6294 35.4311 23.1675 33.7556 20.428 33.7556C20.0248 33.7491 19.6225 33.7939 19.2315 33.8889C19.8644 35.0089 19.9475 36.3689 19.9475 37.4444C19.9565 38.6356 19.6154 39.805 18.9636 40.8178C19.4009 41.0878 19.9084 41.2341 20.428 41.24V41.24Z" fill="white"/>
<path d="M26.4705 46.8044C26.4104 43.2 25.9207 42.1778 22.1788 41.5244C21.9533 41.7481 21.6799 41.9221 21.3776 42.0341C21.0753 42.1461 20.7513 42.1936 20.428 42.1733H20.2894C21.0837 42.4951 21.7766 43.0115 22.2989 43.6711C23.2229 44.8622 23.4076 46.4622 23.4538 48.8134C25.9715 48.3378 26.4844 47.3378 26.4844 47.3378V47.0578C26.4844 47.0578 26.4751 47.0356 26.4705 46.8044Z" fill="white"/>
<path d="M9.47943 41.24C9.99816 41.2368 10.5056 41.0936 10.9439 40.8267C10.292 39.8139 9.95089 38.6445 9.9599 37.4533C9.89691 36.2299 10.1425 35.01 10.6759 33.8978C10.2849 33.8028 9.88263 33.758 9.47943 33.7645C6.74923 33.7645 6.27805 35.44 6.27805 37.5067C6.27805 39.5733 7.71473 41.24 9.47943 41.24Z" fill="white"/>
<path d="M9.63192 42.1689H9.47944C9.15616 42.1892 8.83216 42.1417 8.52985 42.0297C8.22754 41.9177 7.95418 41.7438 7.72863 41.52C3.98672 42.1734 3.49702 43.1956 3.43697 46.8C3.44223 46.8829 3.44223 46.966 3.43697 47.0489V47.3289C3.43697 47.3289 3.95434 48.3244 6.46742 48.8044C6.51362 46.4533 6.7215 44.8533 7.62233 43.6622C8.14467 43.0037 8.83768 42.4888 9.63192 42.1689V42.1689Z" fill="white"/>
<path d="M47.1472 36.7785H44.9498V38.8322H47.1472V36.7785Z" fill="white"/>
<path d="M42.8779 36.7785H40.6805V38.8322H42.8779V36.7785Z" fill="white"/>
<path d="M38.6086 36.7785H36.5368V38.8322H38.6086V36.7785Z" fill="white"/>
<path d="M44.9498 38.8322H42.8779V40.9463H44.9498V38.8322Z" fill="white"/>
<path d="M40.6805 38.8322H38.6086V40.9463H40.6805V38.8322Z" fill="white"/>
<path d="M36.5368 38.8322H34.2766V40.9463H36.5368V38.8322Z" fill="white"/>
<path d="M47.1472 40.9463H44.9498V42.9396H47.1472V40.9463Z" fill="white"/>
<path d="M42.8779 40.9463H40.6805V42.9396H42.8779V40.9463Z" fill="white"/>
<path d="M38.6086 40.9463H36.5368V42.9396H38.6086V40.9463Z" fill="white"/>
<path d="M44.9498 42.9396H42.8779V44.9329H44.9498V42.9396Z" fill="white"/>
<path d="M40.6805 42.9396H38.6086V44.9329H40.6805V42.9396Z" fill="white"/>
<path d="M36.5368 42.9396H34.2766V44.9329H36.5368V42.9396Z" fill="white"/>
<path d="M47.1472 44.9329H44.9498V47.047H47.1472V44.9329Z" fill="white"/>
<path d="M42.8779 44.9329H40.6805V47.047H42.8779V44.9329Z" fill="white"/>
<path d="M38.6086 44.9329H36.5368V47.047H38.6086V44.9329Z" fill="white"/>
<path d="M44.9498 47.047H42.8779V49.1006H44.9498V47.047Z" fill="white"/>
<path d="M40.6805 47.047H38.6086V49.1006H40.6805V47.047Z" fill="white"/>
<path d="M36.5368 47.047H34.2766V49.1006H36.5368V47.047Z" fill="white"/>
<path d="M49.049 34H47.0615H44.8934H42.8696H40.7015H38.6055H36.5818H34.4136H32.3537H31.3257V34.978V36.8903V38.9067V40.9232V42.9396V44.9561V46.9725V48.989V50.9707V51.9396H32.3537H34.4136H36.5818H38.6054H40.7014H42.8696H44.8933H47.0615H49.0489H50.0353V50.9707V48.9889V46.9725V44.956V42.9396V40.9231V38.9066V36.8903V34.978V34H49.049ZM49.0307 36.8903V38.8322H47.1472V40.9463H49.0307V42.9396H47.1472V44.9329H49.0307V44.9561V46.9725V47.047H47.1472V49.1007H49.0307V50.9731H47.1472V49.1007H44.9498V50.9731H44.8934H42.8779V49.1007H40.6805V50.9731H38.6086V49.1007H36.5368V50.9731H34.4136H34.2766V49.1007H32.3303V48.9889V47.047H34.2766V44.9329H32.3303V42.9396H34.2766V40.9463H32.3303V40.9231V38.9066V38.8322H34.2766V36.7785H32.3303V34.9664H34.2766V36.7785H36.5368V34.9664H36.5818H38.6054H38.6086V36.7785H40.6805V34.9664H42.8696H42.8779V36.7785H44.9498V34.9664H47.0615H47.1472V36.7785H49.0307V36.8903Z" fill="white"/>
</svg>
