<svg width="84" height="80" viewBox="0 0 84 80" fill="none" xmlns="http://www.w3.org/2000/svg">
<path d="M41.7199 80C64.6821 80 83.2967 62.0914 83.2967 40C83.2967 17.9086 64.6821 0 41.7199 0C18.7577 0 0.143158 17.9086 0.143158 40C0.143158 62.0914 18.7577 80 41.7199 80Z" fill="#B0B1A1"/>
<path d="M56.7846 46.5645H78.8064V48.4267H56.7846V46.5645Z" fill="white"/>
<path d="M56.7846 32.8311H78.8064V45.3244H56.7846V32.8311Z" fill="white"/>
<path d="M64.4116 49.6711L64.236 50.5333C64.1766 50.8146 64.0183 51.0675 63.7878 51.2496C63.5572 51.4318 63.2686 51.5319 62.9703 51.5333H59.3531V52.7733H76.2101V51.5333H72.5929C72.2944 51.5328 72.0053 51.4329 71.7746 51.2506C71.5439 51.0684 71.3858 50.8149 71.3272 50.5333L71.147 49.6711H64.4116Z" fill="white"/>
<path d="M18.1782 41.9689C19.4116 41.9689 20.6068 41.5574 21.5602 40.8047C22.5136 40.0519 23.1662 39.0044 23.4069 37.8406C23.6475 36.6768 23.4612 35.4687 22.8798 34.4223C22.2984 33.3758 21.3578 32.5556 20.2183 32.1015C19.0789 31.6474 17.811 31.5875 16.6307 31.9319C15.4504 32.2764 14.4309 33.0039 13.7456 33.9905C13.0604 34.9771 12.752 36.1618 12.8728 37.3427C12.9937 38.5236 13.5365 39.6276 14.4086 40.4666C14.898 40.9502 15.4846 41.3328 16.1327 41.5911C16.7808 41.8494 17.4768 41.9779 18.1782 41.9689Z" fill="white"/>
<path d="M27.5053 48.0845C27.4725 47.637 27.4123 47.1918 27.3251 46.7511C27.2424 46.2998 27.1282 45.8543 26.9832 45.4178C26.837 44.9788 26.6435 44.5558 26.4058 44.1556C26.1711 43.7525 25.877 43.3842 25.5327 43.0622C25.1716 42.733 24.746 42.4762 24.2808 42.3067C23.7715 42.116 23.2289 42.0209 22.6824 42.0267C22.3639 42.0593 22.0629 42.1831 21.8185 42.3822L20.8946 42.9422C20.5279 43.1529 20.1352 43.3186 19.7258 43.4356C18.7991 43.7318 17.7976 43.7318 16.8708 43.4356C16.4629 43.3187 16.0718 43.1529 15.7067 42.9422L14.7828 42.3822C14.5368 42.1828 14.2342 42.0589 13.9143 42.0267C13.3693 42.0213 12.8283 42.1163 12.3205 42.3067C11.8544 42.4771 11.4275 42.7338 11.064 43.0622C10.7211 43.3844 10.4285 43.7526 10.1955 44.1556C9.95778 44.5558 9.76424 44.9788 9.61804 45.4178C9.47356 45.8548 9.35784 46.3001 9.27156 46.7511C9.18771 47.1921 9.1291 47.6373 9.09602 48.0845C9.06368 48.4933 9.0498 48.9156 9.0498 49.3422C9.02929 49.8352 9.11565 50.3268 9.30334 50.7859C9.49104 51.245 9.77599 51.6615 10.1401 52.0089C10.9064 52.6811 11.9172 53.0356 12.9534 52.9956H23.6109C24.6471 53.0356 25.658 52.6811 26.4243 52.0089C26.7884 51.6615 27.0733 51.245 27.261 50.7859C27.4487 50.3268 27.535 49.8352 27.5145 49.3422C27.5515 48.9111 27.5376 48.4889 27.5053 48.0845Z" fill="white"/>
<path d="M73.4153 38.92H70.6758V38.5467H71.415C71.4603 38.5467 71.5038 38.5294 71.5358 38.4985C71.5679 38.4677 71.5859 38.4258 71.5859 38.3822C71.5847 38.339 71.5663 38.2978 71.5345 38.2672C71.5027 38.2366 71.4599 38.2189 71.415 38.2178H70.6758V37.8445H71.1886C71.2821 37.8446 71.3747 37.827 71.4611 37.7927C71.5475 37.7583 71.626 37.708 71.6921 37.6445L72.8147 36.5645C72.8878 36.5997 72.9685 36.618 73.0503 36.6178C73.1916 36.618 73.3274 36.5654 73.4291 36.4711C73.4892 36.4104 73.533 36.3364 73.5567 36.2557C73.5804 36.175 73.5832 36.09 73.565 36.008C73.5468 35.9259 73.5081 35.8494 73.4522 35.7851C73.3963 35.7207 73.3249 35.6704 73.2443 35.6386C73.1636 35.6068 73.0761 35.5944 72.9893 35.6025C72.9026 35.6106 72.8192 35.6389 72.7464 35.685C72.6736 35.7311 72.6135 35.7936 72.5715 35.8671C72.5295 35.9406 72.5067 36.0228 72.5052 36.1067C72.505 36.1854 72.524 36.263 72.5606 36.3334L71.438 37.4133C71.3681 37.4806 71.2736 37.5189 71.1747 37.52H70.6619V37.1556C70.6547 36.9245 70.5542 36.7052 70.3817 36.5442C70.2092 36.3832 69.9783 36.2932 69.738 36.2934H69.3638V34.8578C69.4843 34.8188 69.5865 34.7398 69.652 34.6351C69.7176 34.5303 69.7423 34.4065 69.7218 34.2859C69.7012 34.1652 69.6367 34.0554 69.5399 33.9763C69.443 33.8971 69.32 33.8536 69.1929 33.8536C69.0658 33.8536 68.9428 33.8971 68.846 33.9763C68.7491 34.0554 68.6846 34.1652 68.6641 34.2859C68.6435 34.4065 68.6683 34.5303 68.7338 34.6351C68.7994 34.7398 68.9015 34.8188 69.022 34.8578V36.3111H68.6339V35.6C68.6339 35.5564 68.6159 35.5146 68.5839 35.4837C68.5518 35.4529 68.5084 35.4356 68.463 35.4356C68.4177 35.4356 68.3742 35.4529 68.3421 35.4837C68.3101 35.5146 68.2921 35.5564 68.2921 35.6V36.3111H67.904V33.6711C67.904 33.6275 67.886 33.5857 67.854 33.5548C67.8219 33.524 67.7784 33.5067 67.7331 33.5067C67.6881 33.5078 67.6453 33.5255 67.6135 33.5561C67.5817 33.5867 67.5634 33.6279 67.5622 33.6711V36.3111H67.1788V35.6C67.1788 35.5564 67.1607 35.5146 67.1287 35.4837C67.0966 35.4529 67.0532 35.4356 67.0078 35.4356C66.9852 35.435 66.9627 35.4388 66.9417 35.4468C66.9207 35.4549 66.9015 35.467 66.8855 35.4824C66.8695 35.4978 66.857 35.5161 66.8486 35.5364C66.8402 35.5566 66.8363 35.5783 66.8369 35.6V36.3111H66.4858V35.8133C66.4864 35.723 66.4678 35.6334 66.4313 35.5501C66.3948 35.4668 66.341 35.3916 66.2733 35.3289L65.1553 34.2489C65.1988 34.1638 65.217 34.0689 65.208 33.9745C65.1991 33.8801 65.1632 33.7899 65.1043 33.7138C65.0455 33.6377 64.9661 33.5788 64.8747 33.5433C64.7833 33.5079 64.6835 33.4974 64.5863 33.513C64.4891 33.5286 64.3983 33.5696 64.3238 33.6317C64.2493 33.6937 64.1939 33.7743 64.1639 33.8646C64.134 33.9549 64.1304 34.0514 64.1537 34.1435C64.1771 34.2356 64.2263 34.3198 64.2961 34.3867C64.3981 34.4805 64.5338 34.5331 64.6749 34.5333C64.7582 34.5336 64.8404 34.5154 64.9151 34.48L66.0331 35.56C66.0685 35.5927 66.0967 35.6321 66.1157 35.6757C66.1348 35.7192 66.1444 35.7661 66.144 35.8133V36.3111H65.7698C65.6935 36.311 65.6174 36.3199 65.5434 36.3378C65.5216 36.3429 65.5012 36.3523 65.4832 36.3652C65.4653 36.3782 65.4502 36.3945 65.439 36.4131C65.4278 36.4318 65.4206 36.4525 65.4179 36.4739C65.4152 36.4953 65.417 36.5171 65.4233 36.5378C65.4352 36.5795 65.4637 36.615 65.5026 36.6366C65.5415 36.6582 65.5877 36.6642 65.6312 36.6534C65.6773 36.6487 65.7237 36.6487 65.7698 36.6534H69.775C69.9232 36.6534 70.0654 36.71 70.1702 36.8109C70.2751 36.9117 70.334 37.0485 70.334 37.1911V41.0445C70.3388 41.0903 70.3388 41.1364 70.334 41.1822C70.3238 41.224 70.3306 41.2679 70.3529 41.3051C70.3752 41.3422 70.4114 41.3698 70.4541 41.3822H70.5003C70.5379 41.3821 70.5743 41.3698 70.6037 41.3472C70.6331 41.3246 70.6536 41.2931 70.6619 41.2578C70.6821 41.1868 70.6929 41.1136 70.6943 41.04V40.6356H72.2003C72.2317 40.7255 72.2883 40.8053 72.3639 40.8662C72.4394 40.9271 72.531 40.9668 72.6285 40.9809C72.7259 40.9951 72.8256 40.983 72.9164 40.9462C73.0072 40.9093 73.0857 40.8491 73.1433 40.7721C73.2008 40.6951 73.2352 40.6043 73.2426 40.5097C73.2499 40.4151 73.23 40.3205 73.1851 40.236C73.1401 40.1516 73.0719 40.0808 72.9878 40.0313C72.9037 39.9818 72.807 39.9556 72.7084 39.9556C72.5964 39.9562 72.4872 39.9903 72.3962 40.0532C72.3052 40.1161 72.2367 40.2047 72.2003 40.3067H70.6943V39.9334H71.4334C71.4579 39.9373 71.483 39.936 71.5069 39.9297C71.5308 39.9233 71.553 39.912 71.572 39.8966C71.5909 39.8811 71.6061 39.8619 71.6165 39.8403C71.627 39.8186 71.6324 39.795 71.6324 39.7711C71.6324 39.7472 71.627 39.7237 71.6165 39.702C71.6061 39.6803 71.5909 39.6611 71.572 39.6457C71.553 39.6302 71.5308 39.619 71.5069 39.6126C71.483 39.6063 71.4579 39.605 71.4334 39.6089H70.6943V39.2356H73.4153C73.4606 39.2356 73.5041 39.2182 73.5361 39.1874C73.5682 39.1566 73.5862 39.1147 73.5862 39.0711C73.5838 39.0295 73.5646 38.9904 73.5327 38.9621C73.5007 38.9339 73.4586 38.9188 73.4153 38.92V38.92ZM72.9163 35.9734C72.9338 35.9562 72.9546 35.9427 72.9777 35.9335C73.0007 35.9244 73.0254 35.9198 73.0503 35.92C73.076 35.9194 73.1015 35.9238 73.1253 35.933C73.1491 35.9422 73.1708 35.9559 73.1889 35.9734C73.2068 35.991 73.2209 36.0118 73.2305 36.0347C73.24 36.0576 73.2447 36.082 73.2443 36.1067C73.2446 36.1306 73.2398 36.1544 73.2303 36.1766C73.2208 36.1987 73.2067 36.2188 73.1889 36.2356C73.171 36.2536 73.1495 36.268 73.1257 36.278C73.1019 36.2879 73.0763 36.2931 73.0503 36.2934C73.0251 36.2928 73.0003 36.2874 72.9773 36.2775C72.9543 36.2675 72.9335 36.2533 72.9163 36.2356C72.8985 36.2188 72.8845 36.1987 72.8749 36.1766C72.8654 36.1544 72.8606 36.1306 72.8609 36.1067C72.8617 36.0814 72.8679 36.0565 72.879 36.0336C72.8901 36.0107 72.906 35.9902 72.9256 35.9734H72.9163ZM64.8135 34.1333C64.7762 34.1618 64.7293 34.176 64.6818 34.1734C64.6343 34.1707 64.5895 34.1514 64.5558 34.119C64.5222 34.0866 64.5021 34.0435 64.4993 33.9978C64.4966 33.9521 64.5114 33.907 64.5409 33.8711C64.5767 33.8374 64.6248 33.8182 64.6749 33.8178C64.7128 33.8181 64.7497 33.8291 64.7811 33.8493C64.8125 33.8696 64.8371 33.8983 64.8519 33.9318C64.8666 33.9653 64.8708 34.0023 64.864 34.0381C64.8572 34.0739 64.8396 34.107 64.8135 34.1333ZM69.2299 34.5422C69.1784 34.5422 69.1291 34.5226 69.0927 34.4876C69.0563 34.4526 69.0359 34.4051 69.0359 34.3556C69.0359 34.3061 69.0563 34.2586 69.0927 34.2236C69.1291 34.1886 69.1784 34.1689 69.2299 34.1689C69.2813 34.1689 69.3307 34.1886 69.3671 34.2236C69.4035 34.2586 69.4239 34.3061 69.4239 34.3556C69.4244 34.4008 69.4078 34.4446 69.3772 34.479C69.3466 34.5133 69.3041 34.5358 69.2576 34.5422H69.2299ZM72.69 40.2978C72.7283 40.2978 72.7659 40.3087 72.7978 40.3293C72.8297 40.3498 72.8546 40.3789 72.8692 40.413C72.8839 40.4471 72.8878 40.4847 72.8803 40.5209C72.8728 40.5571 72.8543 40.5903 72.8272 40.6164C72.8 40.6426 72.7655 40.6603 72.7278 40.6675C72.6902 40.6747 72.6512 40.671 72.6157 40.6569C72.5803 40.6428 72.55 40.6189 72.5287 40.5882C72.5073 40.5575 72.496 40.5214 72.496 40.4845C72.4959 40.4592 72.5012 40.4342 72.5116 40.4109C72.5219 40.3877 72.537 40.3667 72.556 40.3492C72.575 40.3318 72.5975 40.3182 72.6221 40.3094C72.6468 40.3005 72.673 40.2966 72.6992 40.2978H72.69Z" fill="white"/>
<path d="M71.2533 43.8C71.1742 43.7242 71.0725 43.674 70.9624 43.6564C70.8522 43.6389 70.7391 43.6549 70.6389 43.7022L69.5163 42.6267C69.4474 42.5573 69.4093 42.4649 69.41 42.3689V41.8756H69.7842C69.8605 41.8755 69.9365 41.8665 70.0106 41.8489C70.0324 41.8434 70.0529 41.8337 70.0709 41.8206C70.0889 41.8074 70.104 41.791 70.1153 41.7722C70.1267 41.7534 70.1341 41.7327 70.1371 41.7111C70.1402 41.6896 70.1388 41.6677 70.133 41.6467C70.1273 41.6257 70.1172 41.606 70.1036 41.5887C70.0899 41.5714 70.0728 41.5569 70.0533 41.5459C70.0338 41.535 70.0122 41.5278 69.9898 41.5249C69.9674 41.522 69.9447 41.5234 69.9228 41.5289C69.8769 41.5356 69.8302 41.5356 69.7842 41.5289H65.779C65.7056 41.5289 65.6329 41.515 65.5651 41.488C65.4973 41.461 65.4356 41.4213 65.3837 41.3714C65.3318 41.3215 65.2907 41.2622 65.2626 41.1969C65.2345 41.1317 65.22 41.0617 65.22 40.9911V37.1378C65.2131 37.0936 65.2131 37.0486 65.22 37.0045C65.2256 36.9834 65.2267 36.9616 65.2234 36.9402C65.2201 36.9187 65.2125 36.8981 65.2009 36.8795C65.1893 36.8609 65.174 36.8447 65.1559 36.8318C65.1378 36.819 65.1172 36.8097 65.0953 36.8045C65.0735 36.7991 65.0507 36.798 65.0284 36.8012C65.0061 36.8044 64.9847 36.8117 64.9654 36.8229C64.9461 36.834 64.9293 36.8487 64.9159 36.8662C64.9025 36.8836 64.8928 36.9034 64.8874 36.9245C64.8688 36.9942 64.8595 37.0658 64.8597 37.1378V37.5245H63.3537C63.3136 37.4082 63.2318 37.3094 63.123 37.2459C63.0141 37.1824 62.8853 37.1582 62.7596 37.1777C62.634 37.1972 62.5196 37.2592 62.437 37.3524C62.3545 37.4457 62.3092 37.5642 62.3092 37.6867C62.3092 37.8092 62.3545 37.9277 62.437 38.0209C62.5196 38.1142 62.634 38.1761 62.7596 38.1956C62.8853 38.2152 63.0141 38.191 63.123 38.1275C63.2318 38.0639 63.3136 37.9652 63.3537 37.8489H64.8597V38.2222H64.1206C64.0756 38.2234 64.0328 38.2411 64.001 38.2717C63.9692 38.3023 63.9508 38.3434 63.9496 38.3867C63.9496 38.4303 63.9676 38.4721 63.9997 38.503C64.0317 38.5338 64.0752 38.5511 64.1206 38.5511H64.8597V38.9245H62.1156C62.0934 38.9245 62.0714 38.9287 62.0509 38.937C62.0304 38.9454 62.0119 38.9575 61.9964 38.9729C61.9809 38.9882 61.9687 39.0064 61.9606 39.0263C61.9525 39.0462 61.9487 39.0675 61.9493 39.0889C61.9493 39.1318 61.9667 39.1729 61.9977 39.2036C62.0288 39.2344 62.0711 39.2522 62.1156 39.2534H64.8597V39.6267H64.1206C64.0961 39.6228 64.071 39.624 64.0471 39.6304C64.0232 39.6367 64.001 39.648 63.982 39.6635C63.9631 39.6789 63.9479 39.6981 63.9375 39.7198C63.927 39.7414 63.9216 39.765 63.9216 39.7889C63.9216 39.8128 63.927 39.8364 63.9375 39.858C63.9479 39.8797 63.9631 39.8989 63.982 39.9144C64.001 39.9298 64.0232 39.9411 64.0471 39.9474C64.071 39.9538 64.0961 39.955 64.1206 39.9511H64.8597V40.3245H64.3469C64.2523 40.3243 64.1587 40.3423 64.0714 40.3774C63.9842 40.4126 63.9051 40.464 63.8388 40.5289L62.7208 41.6045C62.6461 41.5691 62.5639 41.5509 62.4806 41.5511C62.4102 41.5509 62.3404 41.5642 62.2754 41.5901C62.2104 41.6161 62.1514 41.6542 62.1018 41.7022C62.0036 41.8 61.9486 41.9307 61.9486 42.0667C61.9486 42.2027 62.0036 42.3333 62.1018 42.4311C62.1762 42.5063 62.2724 42.5582 62.378 42.5798C62.4835 42.6015 62.5933 42.5921 62.6932 42.5527C62.793 42.5133 62.8782 42.4458 62.9375 42.3591C62.9968 42.2724 63.0276 42.1705 63.0257 42.0667C63.026 41.9866 63.007 41.9075 62.9703 41.8356L64.0882 40.76C64.1598 40.6925 64.2559 40.6543 64.3562 40.6534H64.8689V41.0134C64.8689 41.2491 64.9663 41.4752 65.1396 41.6419C65.3128 41.8086 65.5478 41.9022 65.7929 41.9022H66.1671V43.3511C66.0466 43.3901 65.9445 43.4691 65.8789 43.5738C65.8133 43.6786 65.7886 43.8024 65.8092 43.9231C65.8297 44.0438 65.8942 44.1535 65.991 44.2327C66.0879 44.3118 66.2109 44.3553 66.338 44.3553C66.4651 44.3553 66.5881 44.3118 66.6849 44.2327C66.7818 44.1535 66.8463 44.0438 66.8668 43.9231C66.8874 43.8024 66.8626 43.6786 66.7971 43.5738C66.7315 43.4691 66.6294 43.3901 66.5089 43.3511V41.9022H66.897V42.6134C66.8963 42.6351 66.9003 42.6568 66.9087 42.677C66.917 42.6972 66.9296 42.7156 66.9456 42.731C66.9616 42.7464 66.9807 42.7585 67.0017 42.7665C67.0227 42.7746 67.0453 42.7784 67.0679 42.7778C67.1132 42.7778 67.1567 42.7605 67.1887 42.7296C67.2208 42.6988 67.2388 42.657 67.2388 42.6134V41.9022H67.6222V44.5422C67.6234 44.5855 67.6418 44.6267 67.6736 44.6573C67.7054 44.6879 67.7482 44.7056 67.7932 44.7067C67.8385 44.7067 67.882 44.6894 67.914 44.6585C67.9461 44.6277 67.9641 44.5859 67.9641 44.5422V41.9022H68.3337V42.6134C68.3337 42.657 68.3517 42.6988 68.3837 42.7296C68.4158 42.7605 68.4593 42.7778 68.5046 42.7778C68.5499 42.7778 68.5934 42.7605 68.6255 42.7296C68.6575 42.6988 68.6755 42.657 68.6755 42.6134V41.9022H69.0636V42.3956C69.0656 42.5676 69.1348 42.7327 69.2576 42.8578L70.3802 43.9378C70.3303 44.0341 70.3133 44.143 70.3315 44.2492C70.3498 44.3553 70.4024 44.4532 70.4818 44.5289C70.5299 44.5831 70.5891 44.6271 70.6558 44.6582C70.7224 44.6892 70.7951 44.7066 70.8691 44.7093C70.9431 44.712 71.0169 44.6999 71.0858 44.6738C71.1547 44.6477 71.2172 44.6081 71.2694 44.5576C71.3216 44.507 71.3624 44.4466 71.3891 44.3802C71.4158 44.3137 71.428 44.2427 71.4247 44.1715C71.4215 44.1003 71.4029 44.0306 71.3702 43.9666C71.3375 43.9027 71.2914 43.846 71.2348 43.8H71.2533ZM62.864 37.8667C62.8254 37.8667 62.7878 37.8556 62.7558 37.8349C62.7238 37.8142 62.6989 37.7848 62.6844 37.7504C62.6698 37.716 62.6663 37.6783 62.6741 37.6419C62.682 37.6056 62.7009 37.5724 62.7285 37.5464C62.7561 37.5205 62.7911 37.5031 62.8291 37.4964C62.867 37.4897 62.9061 37.4941 62.9415 37.5089C62.9769 37.5237 63.0069 37.5483 63.0276 37.5796C63.0484 37.6108 63.059 37.6474 63.058 37.6845C63.0581 37.7088 63.053 37.7328 63.0432 37.7552C63.0334 37.7776 63.019 37.7979 63.0009 37.8149C62.9829 37.8319 62.9614 37.8452 62.9379 37.8541C62.9144 37.863 62.8893 37.8673 62.864 37.8667V37.8667ZM62.6376 42.1956C62.6193 42.2128 62.5977 42.2264 62.5739 42.2356C62.5501 42.2447 62.5247 42.2493 62.4991 42.2489C62.4741 42.2492 62.4494 42.2446 62.4264 42.2354C62.4034 42.2262 62.3825 42.2127 62.3651 42.1956C62.3461 42.1785 62.3309 42.1579 62.3205 42.135C62.3101 42.112 62.3048 42.0873 62.3048 42.0622C62.3048 42.0372 62.3101 42.0125 62.3205 41.9895C62.3309 41.9666 62.3461 41.946 62.3651 41.9289C62.3825 41.9118 62.4034 41.8982 62.4264 41.8891C62.4494 41.8799 62.4741 41.8753 62.4991 41.8756C62.5378 41.875 62.5759 41.8857 62.6083 41.9062C62.6407 41.9266 62.6661 41.956 62.681 41.9904C62.6959 42.0249 62.6998 42.0628 62.692 42.0994C62.6843 42.136 62.6653 42.1695 62.6376 42.1956V42.1956ZM66.5181 43.8134C66.5181 43.8503 66.5068 43.8864 66.4854 43.9171C66.4641 43.9478 66.4338 43.9717 66.3984 43.9858C66.3629 43.9999 66.3239 44.0036 66.2863 43.9964C66.2486 43.9892 66.2141 43.9715 66.1869 43.9453C66.1598 43.9192 66.1413 43.886 66.1338 43.8498C66.1264 43.8136 66.1302 43.776 66.1449 43.7419C66.1595 43.7078 66.1844 43.6787 66.2163 43.6581C66.2482 43.6376 66.2858 43.6267 66.3241 43.6267C66.3756 43.6267 66.4249 43.6464 66.4613 43.6814C66.4977 43.7164 66.5181 43.7638 66.5181 43.8134ZM71.013 44.2978C70.9767 44.3323 70.9278 44.3516 70.8768 44.3516C70.8258 44.3516 70.7768 44.3323 70.7405 44.2978C70.7131 44.2719 70.6942 44.2389 70.6864 44.2027C70.6785 44.1666 70.682 44.129 70.6963 44.0947C70.7106 44.0604 70.7352 44.0311 70.767 44.0102C70.7987 43.9894 70.8361 43.9781 70.8745 43.9778C70.9001 43.9774 70.9255 43.982 70.9493 43.9911C70.9731 44.0003 70.9948 44.0139 71.013 44.0311C71.0481 44.0673 71.0676 44.115 71.0676 44.1645C71.0676 44.214 71.0481 44.2616 71.013 44.2978V44.2978Z" fill="white"/>
<path d="M69.5902 38.6444C69.5839 38.4711 69.5185 38.3045 69.4042 38.1704C69.2898 38.0363 69.1328 37.942 68.9573 37.9022C68.9643 37.858 68.9643 37.8131 68.9573 37.7689C68.9489 37.6022 68.8723 37.4455 68.7442 37.3331C68.616 37.2207 68.4469 37.1616 68.2736 37.1689C68.1783 37.1684 68.0838 37.1862 67.9958 37.2213C67.9077 37.2564 67.8279 37.3081 67.7608 37.3733C67.6948 37.308 67.6158 37.2563 67.5284 37.2211C67.4411 37.186 67.3473 37.1682 67.2527 37.1689C67.0794 37.1616 66.9102 37.2207 66.7821 37.3331C66.654 37.4455 66.5773 37.6022 66.569 37.7689C66.5644 37.8132 66.5644 37.8579 66.569 37.9022C66.394 37.9422 66.2376 38.0366 66.124 38.1708C66.0104 38.305 65.946 38.4714 65.9407 38.6444C65.9391 38.816 66.0032 38.9821 66.1209 39.1111C66.0044 39.2528 65.9409 39.4282 65.9407 39.6089C65.9429 39.7491 65.9812 39.8867 66.0521 40.0092C66.123 40.1317 66.2244 40.2355 66.3472 40.3111V40.3111C66.358 40.5021 66.4464 40.6814 66.5933 40.8102C66.7402 40.9391 66.9339 41.0073 67.1326 41C67.2485 41.0012 67.3634 40.9785 67.4694 40.9332C67.5754 40.888 67.6701 40.8213 67.747 40.7378C67.8244 40.8206 67.9192 40.8868 68.0251 40.932C68.1309 40.9772 68.2455 41.0004 68.3614 41C68.5534 41.0078 68.7414 40.9452 68.8872 40.8247C69.033 40.7042 69.1258 40.5349 69.1467 40.3511C69.2694 40.2871 69.3722 40.1929 69.4444 40.0781C69.5167 39.9632 69.5559 39.832 69.5579 39.6978C69.5568 39.5997 69.5354 39.5028 69.495 39.4127C69.4545 39.3226 69.3958 39.2413 69.3223 39.1733C69.4018 39.1072 69.4666 39.0262 69.5127 38.9353C69.5587 38.8444 69.5851 38.7454 69.5902 38.6444V38.6444ZM68.985 39.3022C69.0609 39.3369 69.1255 39.3908 69.1719 39.4581C69.2183 39.5255 69.2447 39.6037 69.2483 39.6844C69.2473 39.7426 69.2336 39.8 69.2081 39.8528C69.1827 39.9056 69.146 39.9527 69.1005 39.9911C68.9991 39.8222 68.8335 39.6979 68.6385 39.6444C68.5957 39.6318 68.5494 39.636 68.5096 39.6559C68.4699 39.6759 68.4399 39.7101 68.4261 39.7511C68.4182 39.7715 68.4149 39.7932 68.4164 39.8149C68.4178 39.8365 68.4239 39.8577 68.4344 39.877C68.4448 39.8962 68.4593 39.9132 68.477 39.9267C68.4947 39.9402 68.5151 39.9501 68.5369 39.9555C68.6167 39.9759 68.6877 40.02 68.7399 40.0814C68.7922 40.1428 68.823 40.2185 68.828 40.2978C68.8228 40.3508 68.8067 40.4023 68.7805 40.4493C68.7544 40.4962 68.7187 40.5377 68.6757 40.5713C68.6327 40.6048 68.5831 40.6297 68.5299 40.6446C68.4768 40.6594 68.421 40.6639 68.366 40.6577C68.3109 40.6645 68.2549 40.6605 68.2015 40.6459C68.148 40.6313 68.0982 40.6064 68.055 40.5728C68.0119 40.5391 67.9762 40.4974 67.9503 40.4501C67.9243 40.4029 67.9086 40.351 67.904 40.2978V39.2578C67.9086 39.2045 67.9243 39.1526 67.9503 39.1054C67.9762 39.0581 68.0119 39.0164 68.055 38.9827C68.0982 38.9491 68.148 38.9242 68.2015 38.9096C68.2549 38.895 68.3109 38.891 68.366 38.8978C68.4113 38.8978 68.4548 38.8804 68.4869 38.8496C68.5189 38.8187 68.5369 38.7769 68.5369 38.7333C68.5369 38.6897 68.5189 38.6479 68.4869 38.617C68.4548 38.5862 68.4113 38.5689 68.366 38.5689C68.2033 38.5657 68.043 38.6074 67.904 38.6889V38.48C67.904 38.4364 67.886 38.3945 67.854 38.3637C67.8219 38.3329 67.7784 38.3155 67.7331 38.3155C67.6882 38.3167 67.6453 38.3343 67.6135 38.3649C67.5817 38.3955 67.5634 38.4367 67.5622 38.48V39.3911C67.5044 39.3559 67.4423 39.3275 67.3774 39.3066C67.3559 39.3002 67.3332 39.2979 67.3108 39.2999C67.2883 39.3019 67.2665 39.3082 67.2465 39.3183C67.2266 39.3284 67.2089 39.3422 67.1945 39.3589C67.1801 39.3756 67.1693 39.3948 67.1626 39.4155C67.1559 39.4363 67.1536 39.458 67.1556 39.4796C67.1577 39.5012 67.1642 39.5222 67.1747 39.5414C67.1852 39.5606 67.1995 39.5776 67.2169 39.5915C67.2342 39.6053 67.2542 39.6158 67.2758 39.6222C67.355 39.6413 67.4257 39.6845 67.4773 39.7453C67.5289 39.8062 67.5587 39.8815 67.5622 39.96V40.3111C67.5342 40.4034 67.4758 40.4845 67.3959 40.5422C67.3159 40.5999 67.2186 40.6311 67.1187 40.6311C67.0187 40.6311 66.9215 40.5999 66.8415 40.5422C66.7616 40.4845 66.7032 40.4034 66.6752 40.3111C66.6758 40.267 66.6856 40.2235 66.7038 40.1831C66.7221 40.1426 66.7484 40.1061 66.7815 40.0755C66.7977 40.0606 66.8106 40.0427 66.8194 40.0228C66.8282 40.0029 66.8327 39.9816 66.8327 39.96C66.8327 39.9384 66.8282 39.917 66.8194 39.8972C66.8106 39.8773 66.7977 39.8594 66.7815 39.8444C66.7495 39.814 66.7063 39.797 66.6614 39.797C66.6164 39.797 66.5732 39.814 66.5412 39.8444C66.502 39.8827 66.4664 39.9244 66.435 39.9689C66.3829 39.923 66.3408 39.8674 66.3115 39.8056C66.2821 39.7437 66.266 39.6768 66.2641 39.6089C66.2705 39.4853 66.3194 39.3672 66.4029 39.2731C66.4865 39.179 66.6001 39.1142 66.726 39.0889C66.7481 39.0848 66.769 39.0763 66.7874 39.064C66.8058 39.0517 66.8214 39.0359 66.8331 39.0175C66.8449 38.9991 66.8525 38.9786 66.8555 38.9572C66.8585 38.9358 66.8569 38.914 66.8507 38.8933C66.8408 38.8509 66.8139 38.8141 66.7758 38.7908C66.7377 38.7675 66.6916 38.7596 66.6475 38.7689C66.5386 38.7956 66.4343 38.8376 66.338 38.8933C66.2771 38.8234 66.2429 38.7356 66.2409 38.6444C66.255 38.5171 66.3195 38.3999 66.421 38.3171C66.5225 38.2344 66.6533 38.1924 66.7861 38.2V38.2C66.8259 38.1991 66.8645 38.1867 66.897 38.1644C66.9282 38.1386 66.9486 38.1028 66.9545 38.0636C66.9605 38.0244 66.9515 37.9844 66.9293 37.9511V37.9511C66.8914 37.9057 66.8702 37.8494 66.8692 37.7911C66.8851 37.7157 66.9276 37.648 66.9895 37.5993C67.0514 37.5507 67.1289 37.5241 67.2088 37.5241C67.2887 37.5241 67.3662 37.5507 67.428 37.5993C67.4899 37.648 67.5324 37.7157 67.5483 37.7911C67.5483 37.8347 67.5663 37.8765 67.5984 37.9074C67.6304 37.9382 67.6739 37.9555 67.7192 37.9555C67.7419 37.9561 67.7644 37.9523 67.7854 37.9443C67.8064 37.9362 67.8255 37.9241 67.8415 37.9087C67.8575 37.8933 67.8701 37.875 67.8785 37.8547C67.8868 37.8345 67.8908 37.8129 67.8902 37.7911C67.9035 37.7131 67.9452 37.6423 68.0079 37.5912C68.0705 37.5401 68.1499 37.512 68.232 37.512C68.3142 37.512 68.3936 37.5401 68.4562 37.5912C68.5188 37.6423 68.5605 37.7131 68.5739 37.7911C68.5818 37.8247 68.5818 37.8597 68.5739 37.8933C68.4764 37.9012 68.3811 37.9253 68.2921 37.9644C68.2506 37.9811 68.2177 38.0129 68.2004 38.0528C68.1831 38.0928 68.1828 38.1377 68.1997 38.1778C68.218 38.218 68.2519 38.2498 68.2941 38.2664C68.3364 38.2829 68.3837 38.2831 68.4261 38.2666C68.5002 38.2347 68.5804 38.2181 68.6617 38.2178V38.2178C68.794 38.2103 68.9242 38.2523 69.025 38.3352C69.1257 38.4181 69.1893 38.5353 69.2022 38.6622C69.1985 38.7429 69.1721 38.8212 69.1257 38.8885C69.0793 38.9558 69.0147 39.0098 68.9388 39.0444C68.9114 39.0585 68.8887 39.0798 68.8731 39.1057C68.8576 39.1316 68.85 39.1612 68.8511 39.1911C68.8603 39.2199 68.8777 39.2455 68.9014 39.2652C68.9251 39.2849 68.9541 39.2977 68.985 39.3022V39.3022Z" fill="white"/>
<path d="M48.1866 35.7785H45.9892V37.8322H48.1866V35.7785Z" fill="white"/>
<path d="M43.9173 35.7785H41.7199V37.8322H43.9173V35.7785Z" fill="white"/>
<path d="M39.6481 35.7785H37.5762V37.8322H39.6481V35.7785Z" fill="white"/>
<path d="M45.9892 37.8322H43.9173V39.9463H45.9892V37.8322Z" fill="white"/>
<path d="M41.7199 37.8322H39.6481V39.9463H41.7199V37.8322Z" fill="white"/>
<path d="M37.5762 37.8322H35.316V39.9463H37.5762V37.8322Z" fill="white"/>
<path d="M48.1866 39.9463H45.9892V41.9396H48.1866V39.9463Z" fill="white"/>
<path d="M43.9173 39.9463H41.7199V41.9396H43.9173V39.9463Z" fill="white"/>
<path d="M39.6481 39.9463H37.5762V41.9396H39.6481V39.9463Z" fill="white"/>
<path d="M45.9892 41.9396H43.9173V43.9329H45.9892V41.9396Z" fill="white"/>
<path d="M41.7199 41.9396H39.6481V43.9329H41.7199V41.9396Z" fill="white"/>
<path d="M37.5762 41.9396H35.316V43.9329H37.5762V41.9396Z" fill="white"/>
<path d="M48.1866 43.9329H45.9892V46.047H48.1866V43.9329Z" fill="white"/>
<path d="M43.9173 43.9329H41.7199V46.047H43.9173V43.9329Z" fill="white"/>
<path d="M39.6481 43.9329H37.5762V46.047H39.6481V43.9329Z" fill="white"/>
<path d="M45.9892 46.047H43.9173V48.1007H45.9892V46.047Z" fill="white"/>
<path d="M41.7199 46.047H39.6481V48.1007H41.7199V46.047Z" fill="white"/>
<path d="M37.5762 46.047H35.316V48.1007H37.5762V46.047Z" fill="white"/>
<path d="M50.0884 33H48.1009H45.9328H43.9091H41.7409H39.6449H37.6212H35.453H33.3932H32.3652V33.978V35.8903V37.9067V39.9232V41.9396V43.9561V45.9726V47.989V49.9707V50.9396H33.3932H35.453H37.6212H39.6449H41.7408H43.909H45.9327H48.1009H50.0884H51.0747V49.9707V47.9889V45.9725V43.956V41.9396V39.9231V37.9066V35.8903V33.978V33H50.0884ZM50.0702 35.8903V37.8322H48.1866V39.9463H50.0702V41.9396H48.1866V43.9329H50.0702V43.9561V45.9726V46.047H48.1866V48.1007H50.0702V49.9731H48.1866V48.1007H45.9892V49.9731H45.9328H43.9174V48.1007H41.7199V49.9731H39.6481V48.1007H37.5762V49.9731H35.453H35.316V48.1007H33.3697V47.9889V46.047H35.316V43.9329H33.3697V41.9396H35.316V39.9463H33.3697V39.9231V37.9066V37.8322H35.316V35.7785H33.3697V33.9664H35.316V35.7785H37.5762V33.9664H37.6212H39.6449H39.6481V35.7785H41.7199V33.9664H43.909H43.9174V35.7785H45.9892V33.9664H48.1009H48.1866V35.7785H50.0702V35.8903Z" fill="white"/>
</svg>
