<svg width="31" height="37" viewBox="0 0 31 37" fill="none" xmlns="http://www.w3.org/2000/svg">
<path d="M4.58576 17.5858C3.80471 18.3669 3.80472 19.6332 4.58576 20.4142L17.3137 33.1422C18.0947 33.9232 19.3611 33.9232 20.1421 33.1422C20.9232 32.3611 20.9232 31.0948 20.1421 30.3137L8.8284 19L20.1421 7.68632C20.9232 6.90527 20.9232 5.63894 20.1421 4.85789C19.3611 4.07684 18.0947 4.07684 17.3137 4.85789L4.58576 17.5858ZM27 17L5.99998 17L5.99998 21L27 21L27 17Z" fill="black"/>
</svg>
