<svg width="46" height="32" viewBox="0 0 46 32" fill="none" xmlns="http://www.w3.org/2000/svg">
<g clip-path="url(#clip0)">
<path d="M-1.75586 -2.39824H47.7558V34.9259H-1.75586V-2.39824Z" fill="#012169"/>
<path d="M4.04629 -2.39824L22.9226 11.6761L41.7216 -2.39824H47.7558V2.4228L29.1889 16.3416L47.7558 30.1827V34.9259H41.5668L23 21.0071L4.51046 34.9259H-1.75586V30.2604L16.7336 16.4194L-1.75586 2.57832V-2.39824H4.04629Z" fill="white"/>
<path d="M31.0456 19.452L47.7558 31.8156V34.9259L26.7907 19.452H31.0456ZM16.811 21.0071L17.2752 23.7287L2.42169 34.9259H-1.75586L16.811 21.0071ZM47.7558 -2.39824V-2.16496L28.4927 12.4537L28.6474 9.03229L43.8877 -2.39824H47.7558ZM-1.75586 -2.39824L16.7336 11.2873H12.0919L-1.75586 0.867626V-2.39824Z" fill="#C8102E"/>
<path d="M16.8884 -2.39824V34.9259H29.2663V-2.39824H16.8884ZM-1.75586 10.0431V22.4845H47.7558V10.0431H-1.75586Z" fill="white"/>
<path d="M-1.75586 12.6092V20.074H47.7558V12.6092H-1.75586ZM19.364 -2.39824V34.9259H26.7907V-2.39824H19.364Z" fill="#C8102E"/>
</g>
<defs>
<clipPath id="clip0">
<rect width="49.5117" height="37.3242" fill="white" transform="translate(-1.75586 -2.39824)"/>
</clipPath>
</defs>
</svg>
